<?xml version="1.0" standalone="no"?>
<svg width="20" height="40" xmlns="http://www.w3.org/2000/svg" version="1.1">
    <path d="M 10 0 L 20 0 L 20 20 L 10 20 L 10 40 L 0 40 L 0 10 L 10 10" fill="#673986"/>
    <path d="M 10 0.5 L 19.5 0.5 L 19.5 19.5 L 9.5 19.5 L 9.5 39.5 L 0.5 39.5 L 0.5 10.5 L 10.5 10.5 L 10.5 0" fill="none" stroke="black"/>
</svg>