<?xml version="1.0" standalone="no"?>
<svg width="20" height="20" xmlns="http://www.w3.org/2000/svg" version="1.1">
    <path d="M 0 0 L 0 20 L 20 20 L 20 0" fill="#673986"/>
    <path d="M 0.5 0 L 0.5 19.5 L 19.5 19.5 L 19.5 0.5 L 0 0.5" fill="none" stroke="black"/>
</svg>
