<?xml version="1.0" standalone="no"?>
<svg width="30" height="10" xmlns="http://www.w3.org/2000/svg" version="1.1">
    <path d="M 0 0 L 0 10 L 30 10 L 30 0" fill="#f49200"/>
    <path d="M 0.5 0 L 0.5 9.5 L 29.5 9.5 L 29.5 0.5 L 0 0.5" fill="none" stroke="black"/>
</svg>