<?xml version="1.0" standalone="no"?>
<svg width="20" height="40" xmlns="http://www.w3.org/2000/svg" version="1.1">
    <path d="M 0 0 L 10 0 L 10 30 L 20 30 L 20 40 L 0 40" fill="#f49200"/>
    <path d="M 0 0.5 L 9.5 0.5 L 9.5 29.5 L 19.5 29.5 L 19.5 39.5 L 0.5 39.5 L 0.5 0" fill="none" stroke="black"/>
</svg>